%!PS-Adobe-3.0 EPSF-3.0
%%Title: /Users/wenjiaxie/Documents/LR.eps
%%Creator: matplotlib version 1.3.1, http://matplotlib.org/
%%CreationDate: Tue Apr 28 13:44:13 2015
%%Orientation: portrait
%%BoundingBox: -18 72 630 720
%%EndComments
%%BeginProlog
/mpldict 9 dict def
mpldict begin
/m { moveto } bind def
/l { lineto } bind def
/r { rlineto } bind def
/c { curveto } bind def
/cl { closepath } bind def
/box {
m
1 index 0 r
0 exch r
neg 0 r
cl
} bind def
/clipbox {
box
clip
newpath
} bind def
%!PS-Adobe-3.0 Resource-Font
%%Title: Bitstream Vera Sans Bold
%%Copyright: Copyright (c) 2003 by Bitstream, Inc. All Rights Reserved.
%%Creator: Converted from TrueType to type 3 by PPR
25 dict begin
/_d{bind def}bind def
/_m{moveto}_d
/_l{lineto}_d
/_cl{closepath eofill}_d
/_c{curveto}_d
/_sc{7 -1 roll{setcachedevice}{pop pop pop pop pop pop}ifelse}_d
/_e{exec}_d
/FontName /BitstreamVeraSans-Bold def
/PaintType 0 def
/FontMatrix[.001 0 0 .001 0 0]def
/FontBBox[-199 -236 1417 928]def
/FontType 3 def
/Encoding [ /space /C /P /a /c /e /f /i /l /m /n /o /p /r /s ] def
/FontInfo 10 dict dup begin
/FamilyName (Bitstream Vera Sans) def
/FullName (Bitstream Vera Sans Bold) def
/Notice (Copyright (c) 2003 by Bitstream, Inc. All Rights Reserved. Bitstream Vera is a trademark of Bitstream, Inc.) def
/Weight (Bold) def
/Version (Release 1.10) def
/ItalicAngle 0.0 def
/isFixedPitch false def
/UnderlinePosition -227 def
/UnderlineThickness 258 def
end readonly def
/CharStrings 15 dict dup begin
/space{348 0 0 0 0 0 _sc
}_d
/C{{734 0 50 -13 670 742 _sc
670 40 _m
635 22 599 8 562 0 _c
524 -8 485 -13 445 -13 _c
323 -13 227 20 156 88 _c
85 155 50 247 50 364 _c
50 480 85 572 156 640 _c
227 708 323 742 445 742 _c
485 742 524 737 562 728 _c
599 719 635 706 670 688 _c
670 537 _l
635 561 601 578 567 589 _c
533 600 497 606 460 606 _c
392 606 339 584 301 541 _c
263 498 244 439 244 364 _c
}_e{244 288 263 229 301 186 _c
339 143 392 122 460 122 _c
497 122 533 127 567 138 _c
601 149 635 167 670 191 _c
670 40 _l
_cl}_e}_d
/P{733 0 92 0 692 729 _sc
92 729 _m
404 729 _l
496 729 567 708 617 667 _c
667 625 692 567 692 491 _c
692 414 667 355 617 314 _c
567 273 496 253 404 253 _c
280 253 _l
280 0 _l
92 0 _l
92 729 _l
280 593 _m
280 389 _l
384 389 _l
420 389 448 397 468 415 _c
488 433 498 458 498 491 _c
498 523 488 548 468 566 _c
448 584 420 593 384 593 _c
280 593 _l
_cl}_d
/a{{675 0 43 -13 596 560 _sc
329 246 _m
292 246 264 239 246 227 _c
228 215 219 197 219 173 _c
219 151 226 133 241 121 _c
256 108 277 102 303 102 _c
336 102 364 113 386 137 _c
408 161 420 190 420 226 _c
420 246 _l
329 246 _l
596 312 _m
596 0 _l
420 0 _l
420 81 _l
396 47 370 23 341 9 _c
311 -5 276 -13 234 -13 _c
177 -13 131 3 96 36 _c
60 68 43 111 43 164 _c
}_e{43 228 65 275 109 305 _c
153 335 222 350 317 350 _c
420 350 _l
420 364 _l
420 391 409 411 387 424 _c
365 437 331 444 285 444 _c
247 444 212 440 180 432 _c
148 424 118 413 91 399 _c
91 532 _l
128 541 165 548 203 553 _c
241 557 279 560 317 560 _c
415 560 486 540 530 501 _c
574 462 596 399 596 312 _c
_cl}_e}_d
/c{{593 0 43 -13 526 560 _sc
526 530 _m
526 387 _l
502 403 478 415 454 423 _c
430 431 405 435 380 435 _c
331 435 293 420 266 392 _c
238 364 225 324 225 273 _c
225 221 238 181 266 153 _c
293 125 331 111 380 111 _c
407 111 433 115 458 123 _c
482 131 505 143 526 159 _c
526 16 _l
498 6 470 -1 442 -6 _c
414 -10 386 -13 358 -13 _c
259 -13 182 12 126 62 _c
}_e{70 112 43 183 43 273 _c
43 363 70 433 126 484 _c
182 534 259 560 358 560 _c
386 560 414 557 442 552 _c
470 547 498 540 526 530 _c
_cl}_e}_d
/e{{678 0 43 -13 630 560 _sc
630 275 _m
630 225 _l
221 225 _l
225 184 240 153 266 133 _c
291 112 326 102 372 102 _c
408 102 446 107 485 118 _c
523 129 563 146 604 168 _c
604 33 _l
562 17 521 6 480 -1 _c
438 -9 397 -13 356 -13 _c
257 -13 180 12 125 62 _c
70 112 43 182 43 273 _c
43 362 70 432 124 483 _c
178 534 252 560 346 560 _c
432 560 500 534 552 482 _c
}_e{604 430 630 361 630 275 _c
450 333 _m
450 366 440 393 421 413 _c
401 433 376 444 345 444 _c
311 444 283 434 262 415 _c
241 396 228 369 223 333 _c
450 333 _l
_cl}_e}_d
/f{435 0 19 0 444 760 _sc
444 760 _m
444 645 _l
347 645 _l
322 645 305 640 295 631 _c
285 622 281 607 281 585 _c
281 547 _l
430 547 _l
430 422 _l
281 422 _l
281 0 _l
106 0 _l
106 422 _l
19 422 _l
19 547 _l
106 547 _l
106 585 _l
106 644 122 688 156 717 _c
189 745 240 760 310 760 _c
444 760 _l
_cl}_d
/i{343 0 84 0 259 760 _sc
84 547 _m
259 547 _l
259 0 _l
84 0 _l
84 547 _l
84 760 _m
259 760 _l
259 617 _l
84 617 _l
84 760 _l
_cl}_d
/l{343 0 84 0 259 760 _sc
84 760 _m
259 760 _l
259 0 _l
84 0 _l
84 760 _l
_cl}_d
/m{{1042 0 83 0 963 560 _sc
591 456 _m
613 490 639 515 669 533 _c
699 551 733 560 770 560 _c
832 560 880 540 913 502 _c
946 463 963 407 963 333 _c
963 0 _l
787 0 _l
787 285 _l
787 289 788 294 788 298 _c
788 302 788 309 788 318 _c
788 356 782 384 771 402 _c
759 419 741 428 716 428 _c
682 428 657 414 639 387 _c
621 359 611 320 611 269 _c
611 0 _l
435 0 _l
435 285 _l
}_e{435 345 429 384 419 402 _c
409 419 390 428 364 428 _c
330 428 304 414 286 387 _c
268 359 259 320 259 269 _c
259 0 _l
83 0 _l
83 547 _l
259 547 _l
259 467 _l
280 497 305 520 333 536 _c
361 552 391 560 425 560 _c
462 560 495 550 524 532 _c
553 514 575 488 591 456 _c
_cl}_e}_d
/n{712 0 84 0 634 560 _sc
634 333 _m
634 0 _l
458 0 _l
458 54 _l
458 255 _l
458 302 457 334 455 352 _c
453 370 449 383 444 392 _c
437 403 428 412 416 418 _c
404 424 390 428 376 428 _c
339 428 310 414 290 386 _c
269 358 259 319 259 269 _c
259 0 _l
84 0 _l
84 547 _l
259 547 _l
259 467 _l
285 499 312 522 342 537 _c
372 552 405 560 441 560 _c
504 560 552 540 585 502 _c
617 463 634 407 634 333 _c
_cl}_d
/o{687 0 43 -13 644 560 _sc
344 435 _m
305 435 275 421 255 393 _c
235 365 225 325 225 273 _c
225 220 235 180 255 152 _c
275 124 305 111 344 111 _c
382 111 411 124 431 152 _c
451 180 462 220 462 273 _c
462 325 451 365 431 393 _c
411 421 382 435 344 435 _c
344 560 _m
438 560 511 534 564 484 _c
617 433 644 363 644 273 _c
644 183 617 112 564 62 _c
511 12 438 -13 344 -13 _c
250 -13 176 12 123 62 _c
69 112 43 183 43 273 _c
43 363 69 433 123 484 _c
176 534 250 560 344 560 _c
_cl}_d
/p{{716 0 84 -207 671 560 _sc
259 79 _m
259 -207 _l
84 -207 _l
84 547 _l
259 547 _l
259 467 _l
283 499 309 522 339 537 _c
368 552 402 560 440 560 _c
507 560 562 533 606 479 _c
649 425 671 357 671 273 _c
671 188 649 119 606 66 _c
562 13 507 -13 440 -13 _c
402 -13 368 -5 339 9 _c
309 23 283 47 259 79 _c
375 433 _m
337 433 309 419 289 392 _c
269 364 259 325 259 273 _c
}_e{259 221 269 181 289 154 _c
309 126 337 113 375 113 _c
412 113 440 126 460 154 _c
480 181 490 221 490 273 _c
490 325 480 364 460 392 _c
440 419 412 433 375 433 _c
_cl}_e}_d
/r{493 0 84 0 490 560 _sc
490 398 _m
474 405 459 410 444 414 _c
429 417 414 419 399 419 _c
354 419 319 404 295 376 _c
271 347 259 306 259 252 _c
259 0 _l
84 0 _l
84 547 _l
259 547 _l
259 457 _l
281 493 306 519 336 535 _c
365 551 400 560 441 560 _c
447 560 453 559 460 559 _c
466 559 476 558 490 556 _c
490 398 _l
_cl}_d
/s{{595 0 52 -13 548 560 _sc
511 530 _m
511 397 _l
473 412 437 424 403 432 _c
368 440 335 444 304 444 _c
270 444 246 439 230 431 _c
214 423 206 410 206 393 _c
206 379 212 368 224 361 _c
236 353 258 348 290 344 _c
321 340 _l
410 328 470 310 501 284 _c
532 258 548 217 548 161 _c
548 103 526 59 483 30 _c
440 1 376 -13 291 -13 _c
255 -13 217 -10 179 -5 _c
}_e{140 0 100 8 60 20 _c
60 153 _l
94 135 130 122 167 114 _c
203 106 241 102 279 102 _c
313 102 338 106 356 116 _c
373 125 382 139 382 158 _c
382 174 376 185 364 193 _c
352 201 328 207 293 211 _c
262 215 _l
184 224 130 242 99 269 _c
67 295 52 335 52 389 _c
52 447 71 490 111 518 _c
151 546 212 560 294 560 _c
326 560 359 557 395 552 _c
431 547 469 540 511 530 _c
}_e{_cl}_e}_d
end readonly def

/BuildGlyph
 {exch begin
 CharStrings exch
 2 copy known not{pop /.notdef}if
 true 3 1 roll get exec
 end}_d

/BuildChar {
 1 index /Encoding get exch get
 1 index /BuildGlyph get exec
}_d

FontName currentdict end definefont pop
%!PS-Adobe-3.0 Resource-Font
%%Title: Bitstream Vera Sans
%%Copyright: Copyright (c) 2003 by Bitstream, Inc. All Rights Reserved.
%%Creator: Converted from TrueType to type 3 by PPR
25 dict begin
/_d{bind def}bind def
/_m{moveto}_d
/_l{lineto}_d
/_cl{closepath eofill}_d
/_c{curveto}_d
/_sc{7 -1 roll{setcachedevice}{pop pop pop pop pop pop}ifelse}_d
/_e{exec}_d
/FontName /BitstreamVeraSans-Roman def
/PaintType 0 def
/FontMatrix[.001 0 0 .001 0 0]def
/FontBBox[-183 -236 1287 928]def
/FontType 3 def
/Encoding [ /space /period /zero /one /two /three /four /five /six /seven /eight /B /E /L /R /S /a /b /c /e /g /h /i /k /l /m /n /o /r /s /t ] def
/FontInfo 10 dict dup begin
/FamilyName (Bitstream Vera Sans) def
/FullName (Bitstream Vera Sans) def
/Notice (Copyright (c) 2003 by Bitstream, Inc. All Rights Reserved. Bitstream Vera is a trademark of Bitstream, Inc.) def
/Weight (Roman) def
/Version (Release 1.10) def
/ItalicAngle 0.0 def
/isFixedPitch false def
/UnderlinePosition -213 def
/UnderlineThickness 143 def
end readonly def
/CharStrings 31 dict dup begin
/space{318 0 0 0 0 0 _sc
}_d
/period{318 0 107 0 210 124 _sc
107 124 _m
210 124 _l
210 0 _l
107 0 _l
107 124 _l
_cl}_d
/zero{636 0 66 -13 570 742 _sc
318 664 _m
267 664 229 639 203 589 _c
177 539 165 464 165 364 _c
165 264 177 189 203 139 _c
229 89 267 64 318 64 _c
369 64 407 89 433 139 _c
458 189 471 264 471 364 _c
471 464 458 539 433 589 _c
407 639 369 664 318 664 _c
318 742 _m
399 742 461 709 505 645 _c
548 580 570 486 570 364 _c
570 241 548 147 505 83 _c
461 19 399 -13 318 -13 _c
236 -13 173 19 130 83 _c
87 147 66 241 66 364 _c
66 486 87 580 130 645 _c
173 709 236 742 318 742 _c
_cl}_d
/one{636 0 110 0 544 729 _sc
124 83 _m
285 83 _l
285 639 _l
110 604 _l
110 694 _l
284 729 _l
383 729 _l
383 83 _l
544 83 _l
544 0 _l
124 0 _l
124 83 _l
_cl}_d
/two{{636 0 73 0 536 742 _sc
192 83 _m
536 83 _l
536 0 _l
73 0 _l
73 83 _l
110 121 161 173 226 239 _c
290 304 331 346 348 365 _c
380 400 402 430 414 455 _c
426 479 433 504 433 528 _c
433 566 419 598 392 622 _c
365 646 330 659 286 659 _c
255 659 222 653 188 643 _c
154 632 117 616 78 594 _c
78 694 _l
118 710 155 722 189 730 _c
223 738 255 742 284 742 _c
}_e{359 742 419 723 464 685 _c
509 647 532 597 532 534 _c
532 504 526 475 515 449 _c
504 422 484 390 454 354 _c
446 344 420 317 376 272 _c
332 227 271 164 192 83 _c
_cl}_e}_d
/three{{636 0 76 -13 556 742 _sc
406 393 _m
453 383 490 362 516 330 _c
542 298 556 258 556 212 _c
556 140 531 84 482 45 _c
432 6 362 -13 271 -13 _c
240 -13 208 -10 176 -4 _c
144 1 110 10 76 22 _c
76 117 _l
103 101 133 89 166 81 _c
198 73 232 69 268 69 _c
330 69 377 81 409 105 _c
441 129 458 165 458 212 _c
458 254 443 288 413 312 _c
383 336 341 349 287 349 _c
}_e{202 349 _l
202 430 _l
291 430 _l
339 430 376 439 402 459 _c
428 478 441 506 441 543 _c
441 580 427 609 401 629 _c
374 649 336 659 287 659 _c
260 659 231 656 200 650 _c
169 644 135 635 98 623 _c
98 711 _l
135 721 170 729 203 734 _c
235 739 266 742 296 742 _c
370 742 429 725 473 691 _c
517 657 539 611 539 553 _c
539 513 527 479 504 451 _c
481 423 448 403 406 393 _c
_cl}_e}_d
/four{636 0 49 0 580 729 _sc
378 643 _m
129 254 _l
378 254 _l
378 643 _l
352 729 _m
476 729 _l
476 254 _l
580 254 _l
580 172 _l
476 172 _l
476 0 _l
378 0 _l
378 172 _l
49 172 _l
49 267 _l
352 729 _l
_cl}_d
/five{{636 0 77 -13 549 729 _sc
108 729 _m
495 729 _l
495 646 _l
198 646 _l
198 467 _l
212 472 227 476 241 478 _c
255 480 270 482 284 482 _c
365 482 429 459 477 415 _c
525 370 549 310 549 234 _c
549 155 524 94 475 51 _c
426 8 357 -13 269 -13 _c
238 -13 207 -10 175 -6 _c
143 -1 111 6 77 17 _c
77 116 _l
106 100 136 88 168 80 _c
199 72 232 69 267 69 _c
}_e{323 69 368 83 401 113 _c
433 143 450 183 450 234 _c
450 284 433 324 401 354 _c
368 384 323 399 267 399 _c
241 399 214 396 188 390 _c
162 384 135 375 108 363 _c
108 729 _l
_cl}_e}_d
/six{{636 0 70 -13 573 742 _sc
330 404 _m
286 404 251 388 225 358 _c
199 328 186 286 186 234 _c
186 181 199 139 225 109 _c
251 79 286 64 330 64 _c
374 64 409 79 435 109 _c
461 139 474 181 474 234 _c
474 286 461 328 435 358 _c
409 388 374 404 330 404 _c
526 713 _m
526 623 _l
501 635 476 644 451 650 _c
425 656 400 659 376 659 _c
310 659 260 637 226 593 _c
}_e{192 549 172 482 168 394 _c
187 422 211 444 240 459 _c
269 474 301 482 336 482 _c
409 482 467 459 509 415 _c
551 371 573 310 573 234 _c
573 159 550 99 506 54 _c
462 9 403 -13 330 -13 _c
246 -13 181 19 137 83 _c
92 147 70 241 70 364 _c
70 479 97 571 152 639 _c
206 707 280 742 372 742 _c
396 742 421 739 447 735 _c
472 730 498 723 526 713 _c
_cl}_e}_d
/seven{636 0 82 0 551 729 _sc
82 729 _m
551 729 _l
551 687 _l
286 0 _l
183 0 _l
432 646 _l
82 646 _l
82 729 _l
_cl}_d
/eight{{636 0 68 -13 568 742 _sc
318 346 _m
271 346 234 333 207 308 _c
180 283 167 249 167 205 _c
167 161 180 126 207 101 _c
234 76 271 64 318 64 _c
364 64 401 76 428 102 _c
455 127 469 161 469 205 _c
469 249 455 283 429 308 _c
402 333 365 346 318 346 _c
219 388 _m
177 398 144 418 120 447 _c
96 476 85 511 85 553 _c
85 611 105 657 147 691 _c
188 725 245 742 318 742 _c
}_e{390 742 447 725 489 691 _c
530 657 551 611 551 553 _c
551 511 539 476 515 447 _c
491 418 459 398 417 388 _c
464 377 501 355 528 323 _c
554 291 568 251 568 205 _c
568 134 546 80 503 43 _c
459 5 398 -13 318 -13 _c
237 -13 175 5 132 43 _c
89 80 68 134 68 205 _c
68 251 81 291 108 323 _c
134 355 171 377 219 388 _c
183 544 _m
183 506 194 476 218 455 _c
}_e{242 434 275 424 318 424 _c
360 424 393 434 417 455 _c
441 476 453 506 453 544 _c
453 582 441 611 417 632 _c
393 653 360 664 318 664 _c
275 664 242 653 218 632 _c
194 611 183 582 183 544 _c
_cl}_e}_d
/B{{686 0 98 0 615 729 _sc
197 348 _m
197 81 _l
355 81 _l
408 81 447 92 473 114 _c
498 136 511 169 511 215 _c
511 260 498 293 473 315 _c
447 337 408 348 355 348 _c
197 348 _l
197 648 _m
197 428 _l
343 428 _l
391 428 426 437 450 455 _c
474 473 486 500 486 538 _c
486 574 474 602 450 620 _c
426 638 391 648 343 648 _c
197 648 _l
98 729 _m
350 729 _l
}_e{425 729 483 713 524 682 _c
564 650 585 606 585 549 _c
585 504 574 468 553 442 _c
532 416 502 399 462 393 _c
510 382 548 360 575 327 _c
601 294 615 253 615 204 _c
615 138 592 88 548 53 _c
504 17 441 0 360 0 _c
98 0 _l
98 729 _l
_cl}_e}_d
/E{632 0 98 0 568 729 _sc
98 729 _m
559 729 _l
559 646 _l
197 646 _l
197 430 _l
544 430 _l
544 347 _l
197 347 _l
197 83 _l
568 83 _l
568 0 _l
98 0 _l
98 729 _l
_cl}_d
/L{557 0 98 0 552 729 _sc
98 729 _m
197 729 _l
197 83 _l
552 83 _l
552 0 _l
98 0 _l
98 729 _l
_cl}_d
/R{{695 0 98 0 666 729 _sc
444 342 _m
465 334 486 319 506 296 _c
526 272 546 240 566 199 _c
666 0 _l
560 0 _l
467 187 _l
443 235 419 268 397 284 _c
374 300 343 308 304 308 _c
197 308 _l
197 0 _l
98 0 _l
98 729 _l
321 729 _l
404 729 466 711 507 677 _c
548 642 569 589 569 519 _c
569 473 558 434 537 404 _c
515 374 484 353 444 342 _c
197 648 _m
197 389 _l
321 389 _l
}_e{368 389 404 400 428 422 _c
452 444 465 476 465 519 _c
465 561 452 593 428 615 _c
404 637 368 648 321 648 _c
197 648 _l
_cl}_e}_d
/S{{635 0 66 -13 579 742 _sc
535 705 _m
535 609 _l
497 627 462 640 429 649 _c
395 657 363 662 333 662 _c
279 662 237 651 208 631 _c
179 610 165 580 165 542 _c
165 510 174 485 194 469 _c
213 452 250 439 304 429 _c
364 417 _l
437 403 491 378 526 343 _c
561 307 579 260 579 201 _c
579 130 555 77 508 41 _c
460 5 391 -13 300 -13 _c
265 -13 228 -9 189 -2 _c
}_e{150 5 110 16 69 32 _c
69 134 _l
109 111 148 94 186 83 _c
224 71 262 66 300 66 _c
356 66 399 77 430 99 _c
460 121 476 152 476 194 _c
476 230 465 258 443 278 _c
421 298 385 313 335 323 _c
275 335 _l
201 349 148 372 115 404 _c
82 435 66 478 66 534 _c
66 598 88 649 134 686 _c
179 723 242 742 322 742 _c
356 742 390 739 426 733 _c
461 727 497 717 535 705 _c
}_e{_cl}_e}_d
/a{{613 0 60 -13 522 560 _sc
343 275 _m
270 275 220 266 192 250 _c
164 233 150 205 150 165 _c
150 133 160 107 181 89 _c
202 70 231 61 267 61 _c
317 61 357 78 387 114 _c
417 149 432 196 432 255 _c
432 275 _l
343 275 _l
522 312 _m
522 0 _l
432 0 _l
432 83 _l
411 49 385 25 355 10 _c
325 -5 287 -13 243 -13 _c
187 -13 142 2 109 33 _c
76 64 60 106 60 159 _c
}_e{60 220 80 266 122 298 _c
163 329 224 345 306 345 _c
432 345 _l
432 354 _l
432 395 418 427 391 450 _c
364 472 326 484 277 484 _c
245 484 215 480 185 472 _c
155 464 127 453 100 439 _c
100 522 _l
132 534 164 544 195 550 _c
226 556 256 560 286 560 _c
365 560 424 539 463 498 _c
502 457 522 395 522 312 _c
_cl}_e}_d
/b{{635 0 91 -13 580 760 _sc
487 273 _m
487 339 473 390 446 428 _c
418 466 381 485 334 485 _c
286 485 249 466 222 428 _c
194 390 181 339 181 273 _c
181 207 194 155 222 117 _c
249 79 286 61 334 61 _c
381 61 418 79 446 117 _c
473 155 487 207 487 273 _c
181 464 _m
199 496 223 520 252 536 _c
281 552 316 560 356 560 _c
422 560 476 533 518 481 _c
559 428 580 359 580 273 _c
}_e{580 187 559 117 518 65 _c
476 13 422 -13 356 -13 _c
316 -13 281 -5 252 10 _c
223 25 199 49 181 82 _c
181 0 _l
91 0 _l
91 760 _l
181 760 _l
181 464 _l
_cl}_e}_d
/c{{550 0 55 -13 488 560 _sc
488 526 _m
488 442 _l
462 456 437 466 411 473 _c
385 480 360 484 334 484 _c
276 484 230 465 198 428 _c
166 391 150 339 150 273 _c
150 206 166 154 198 117 _c
230 80 276 62 334 62 _c
360 62 385 65 411 72 _c
437 79 462 90 488 104 _c
488 21 _l
462 9 436 0 410 -5 _c
383 -10 354 -13 324 -13 _c
242 -13 176 12 128 64 _c
}_e{79 115 55 185 55 273 _c
55 362 79 432 128 483 _c
177 534 244 560 330 560 _c
358 560 385 557 411 551 _c
437 545 463 537 488 526 _c
_cl}_e}_d
/e{{615 0 55 -13 562 560 _sc
562 296 _m
562 252 _l
149 252 _l
153 190 171 142 205 110 _c
238 78 284 62 344 62 _c
378 62 412 66 444 74 _c
476 82 509 95 541 113 _c
541 28 _l
509 14 476 3 442 -3 _c
408 -9 373 -13 339 -13 _c
251 -13 182 12 131 62 _c
80 112 55 181 55 268 _c
55 357 79 428 127 481 _c
175 533 241 560 323 560 _c
397 560 455 536 498 489 _c
}_e{540 441 562 377 562 296 _c
472 322 _m
471 371 457 410 431 440 _c
404 469 368 484 324 484 _c
274 484 234 469 204 441 _c
174 413 156 373 152 322 _c
472 322 _l
_cl}_e}_d
/g{{635 0 55 -207 544 560 _sc
454 280 _m
454 344 440 395 414 431 _c
387 467 349 485 301 485 _c
253 485 215 467 188 431 _c
161 395 148 344 148 280 _c
148 215 161 165 188 129 _c
215 93 253 75 301 75 _c
349 75 387 93 414 129 _c
440 165 454 215 454 280 _c
544 68 _m
544 -24 523 -93 482 -139 _c
440 -184 377 -207 292 -207 _c
260 -207 231 -204 203 -200 _c
175 -195 147 -188 121 -178 _c
}_e{121 -91 _l
147 -105 173 -115 199 -122 _c
225 -129 251 -133 278 -133 _c
336 -133 380 -117 410 -87 _c
439 -56 454 -10 454 52 _c
454 96 _l
435 64 411 40 382 24 _c
353 8 319 0 279 0 _c
211 0 157 25 116 76 _c
75 127 55 195 55 280 _c
55 364 75 432 116 483 _c
157 534 211 560 279 560 _c
319 560 353 552 382 536 _c
411 520 435 496 454 464 _c
454 547 _l
544 547 _l
}_e{544 68 _l
_cl}_e}_d
/h{634 0 91 0 549 760 _sc
549 330 _m
549 0 _l
459 0 _l
459 327 _l
459 379 448 417 428 443 _c
408 469 378 482 338 482 _c
289 482 251 466 223 435 _c
195 404 181 362 181 309 _c
181 0 _l
91 0 _l
91 760 _l
181 760 _l
181 462 _l
202 494 227 519 257 535 _c
286 551 320 560 358 560 _c
420 560 468 540 500 501 _c
532 462 549 405 549 330 _c
_cl}_d
/i{278 0 94 0 184 760 _sc
94 547 _m
184 547 _l
184 0 _l
94 0 _l
94 547 _l
94 760 _m
184 760 _l
184 646 _l
94 646 _l
94 760 _l
_cl}_d
/k{579 0 91 0 576 760 _sc
91 760 _m
181 760 _l
181 311 _l
449 547 _l
564 547 _l
274 291 _l
576 0 _l
459 0 _l
181 267 _l
181 0 _l
91 0 _l
91 760 _l
_cl}_d
/l{278 0 94 0 184 760 _sc
94 760 _m
184 760 _l
184 0 _l
94 0 _l
94 760 _l
_cl}_d
/m{{974 0 91 0 889 560 _sc
520 442 _m
542 482 569 511 600 531 _c
631 550 668 560 711 560 _c
767 560 811 540 842 500 _c
873 460 889 403 889 330 _c
889 0 _l
799 0 _l
799 327 _l
799 379 789 418 771 444 _c
752 469 724 482 686 482 _c
639 482 602 466 575 435 _c
548 404 535 362 535 309 _c
535 0 _l
445 0 _l
445 327 _l
445 379 435 418 417 444 _c
398 469 369 482 331 482 _c
}_e{285 482 248 466 221 435 _c
194 404 181 362 181 309 _c
181 0 _l
91 0 _l
91 547 _l
181 547 _l
181 462 _l
201 495 226 520 255 536 _c
283 552 317 560 357 560 _c
397 560 430 550 458 530 _c
486 510 506 480 520 442 _c
_cl}_e}_d
/n{634 0 91 0 549 560 _sc
549 330 _m
549 0 _l
459 0 _l
459 327 _l
459 379 448 417 428 443 _c
408 469 378 482 338 482 _c
289 482 251 466 223 435 _c
195 404 181 362 181 309 _c
181 0 _l
91 0 _l
91 547 _l
181 547 _l
181 462 _l
202 494 227 519 257 535 _c
286 551 320 560 358 560 _c
420 560 468 540 500 501 _c
532 462 549 405 549 330 _c
_cl}_d
/o{612 0 55 -13 557 560 _sc
306 484 _m
258 484 220 465 192 427 _c
164 389 150 338 150 273 _c
150 207 163 156 191 118 _c
219 80 257 62 306 62 _c
354 62 392 80 420 118 _c
448 156 462 207 462 273 _c
462 337 448 389 420 427 _c
392 465 354 484 306 484 _c
306 560 _m
384 560 445 534 490 484 _c
534 433 557 363 557 273 _c
557 183 534 113 490 63 _c
445 12 384 -13 306 -13 _c
227 -13 165 12 121 63 _c
77 113 55 183 55 273 _c
55 363 77 433 121 484 _c
165 534 227 560 306 560 _c
_cl}_d
/r{411 0 91 0 411 560 _sc
411 463 _m
401 469 390 473 378 476 _c
366 478 353 480 339 480 _c
288 480 249 463 222 430 _c
194 397 181 350 181 288 _c
181 0 _l
91 0 _l
91 547 _l
181 547 _l
181 462 _l
199 495 224 520 254 536 _c
284 552 321 560 365 560 _c
371 560 378 559 386 559 _c
393 558 401 557 411 555 _c
411 463 _l
_cl}_d
/s{{521 0 54 -13 472 560 _sc
443 531 _m
443 446 _l
417 458 391 468 364 475 _c
336 481 308 485 279 485 _c
234 485 200 478 178 464 _c
156 450 145 430 145 403 _c
145 382 153 366 169 354 _c
185 342 217 330 265 320 _c
296 313 _l
360 299 405 279 432 255 _c
458 230 472 195 472 151 _c
472 100 452 60 412 31 _c
372 1 316 -13 246 -13 _c
216 -13 186 -10 154 -5 _c
}_e{122 0 89 8 54 20 _c
54 113 _l
87 95 120 82 152 74 _c
184 65 216 61 248 61 _c
290 61 323 68 346 82 _c
368 96 380 117 380 144 _c
380 168 371 187 355 200 _c
339 213 303 226 247 238 _c
216 245 _l
160 257 119 275 95 299 _c
70 323 58 356 58 399 _c
58 450 76 490 112 518 _c
148 546 200 560 268 560 _c
301 560 332 557 362 552 _c
391 547 418 540 443 531 _c
}_e{_cl}_e}_d
/t{392 0 27 0 368 702 _sc
183 702 _m
183 547 _l
368 547 _l
368 477 _l
183 477 _l
183 180 _l
183 135 189 106 201 94 _c
213 81 238 75 276 75 _c
368 75 _l
368 0 _l
276 0 _l
206 0 158 13 132 39 _c
106 65 93 112 93 180 _c
93 477 _l
27 477 _l
27 547 _l
93 547 _l
93 702 _l
183 702 _l
_cl}_d
end readonly def

/BuildGlyph
 {exch begin
 CharStrings exch
 2 copy known not{pop /.notdef}if
 true 3 1 roll get exec
 end}_d

/BuildChar {
 1 index /Encoding get exch get
 1 index /BuildGlyph get exec
}_d

FontName currentdict end definefont pop
end
%%EndProlog
mpldict begin
-18 72 translate
648 648 0 0 clipbox
gsave
0 0 m
648 0 l
648 648 l
0 648 l
cl
1.000 setgray
fill
grestore
gsave
332.1 542.7 m
154.545 469.155 l
81 291.6 l
154.545 114.045 l
332.1 40.5 l
509.655 114.045 l
583.2 291.6 l
509.655 469.155 l
cl
1.000 setgray
fill
grestore
1.000 setlinewidth
1 setlinejoin
0 setlinecap
[] 0 setdash
0.000 setgray
gsave
/c0 {
332.1 542.7 m
154.545 469.155 l
81 291.6 l
154.545 114.045 l
332.1 40.5 l
509.655 114.045 l
583.2 291.6 l
509.655 469.155 l
cl
clip
newpath
} bind def
c0
332.1 453.12 m
154.545 469.155 l
156.066 291.6 l
205.783 165.283 l
332.1 83.1874 l
495.786 127.914 l
561.354 291.6 l
474.207 433.707 l
cl
gsave
0.973 0.910 0.816 setrgbcolor
fill
grestore
stroke
grestore
gsave
c0
332.1 414.415 m
203.151 420.549 l
190.677 291.6 l
218.941 178.441 l
332.1 101.796 l
479.47 144.23 l
510.739 291.6 l
434.733 394.233 l
cl
gsave
0.957 0.698 0.741 setrgbcolor
fill
grestore
stroke
grestore
gsave
c0
332.1 412.182 m
166.835 456.865 l
181.745 291.6 l
241.31 200.81 l
332.1 140.129 l
481.575 142.125 l
485.06 291.6 l
429.206 388.706 l
cl
gsave
0.835 0.349 0.435 setrgbcolor
fill
grestore
stroke
grestore
2 setlinecap
0.973 0.910 0.816 setrgbcolor
gsave
c0
332.1 453.12 m
154.545 469.155 l
156.066 291.6 l
205.783 165.283 l
332.1 83.1874 l
495.786 127.914 l
561.354 291.6 l
474.207 433.707 l
332.1 453.12 l
stroke
grestore
0.957 0.698 0.741 setrgbcolor
gsave
c0
332.1 414.415 m
203.151 420.549 l
190.677 291.6 l
218.941 178.441 l
332.1 101.796 l
479.47 144.23 l
510.739 291.6 l
434.733 394.233 l
332.1 414.415 l
stroke
grestore
0.835 0.349 0.435 setrgbcolor
gsave
c0
332.1 412.182 m
166.835 456.865 l
181.745 291.6 l
241.31 200.81 l
332.1 140.129 l
481.575 142.125 l
485.06 291.6 l
429.206 388.706 l
332.1 412.182 l
stroke
grestore
0.500 setlinewidth
0 setlinecap
[1 3] 0 setdash
0.000 setgray
gsave
c0
332.1 291.6 m
332.1 542.7 l
stroke
grestore
/BitstreamVeraSans-Roman findfont
12.000 scalefont
setfont
gsave
319.232813 564.497500 translate
0.000000 rotate
0.000000 0.000000 m /S glyphshow
7.617188 0.000000 m /e glyphshow
15.000000 0.000000 m /t glyphshow
19.705078 0.000000 m /eight glyphshow
grestore
gsave
c0
332.1 291.6 m
154.545 469.155 l
stroke
grestore
gsave
124.063473 483.597464 translate
0.000000 rotate
0.000000 0.000000 m /S glyphshow
7.617188 0.000000 m /e glyphshow
15.000000 0.000000 m /t glyphshow
19.705078 0.000000 m /one glyphshow
grestore
gsave
c0
332.1 291.6 m
81 291.6 l
stroke
grestore
gsave
43.210312 288.287500 translate
0.000000 rotate
0.000000 0.000000 m /S glyphshow
7.617188 0.000000 m /e glyphshow
15.000000 0.000000 m /t glyphshow
19.705078 0.000000 m /two glyphshow
grestore
gsave
c0
332.1 291.6 m
154.545 114.045 l
stroke
grestore
gsave
123.993161 92.977536 translate
0.000000 rotate
0.000000 0.000000 m /S glyphshow
7.617188 0.000000 m /e glyphshow
15.000000 0.000000 m /t glyphshow
19.705078 0.000000 m /three glyphshow
grestore
gsave
c0
332.1 291.6 m
332.1 40.5 l
stroke
grestore
gsave
319.154687 12.077500 translate
0.000000 rotate
0.000000 0.000000 m /S glyphshow
7.617188 0.000000 m /e glyphshow
15.000000 0.000000 m /t glyphshow
19.705078 0.000000 m /four glyphshow
grestore
gsave
c0
332.1 291.6 m
509.655 114.045 l
stroke
grestore
gsave
514.652152 92.977536 translate
0.000000 rotate
0.000000 0.000000 m /S glyphshow
7.617188 0.000000 m /e glyphshow
15.000000 0.000000 m /t glyphshow
19.705078 0.000000 m /five glyphshow
grestore
gsave
c0
332.1 291.6 m
583.2 291.6 l
stroke
grestore
gsave
595.411563 288.287500 translate
0.000000 rotate
0.000000 0.000000 m /S glyphshow
7.617188 0.000000 m /e glyphshow
15.000000 0.000000 m /t glyphshow
19.705078 0.000000 m /six glyphshow
grestore
gsave
c0
332.1 291.6 m
509.655 469.155 l
stroke
grestore
gsave
514.644339 483.597464 translate
0.000000 rotate
0.000000 0.000000 m /S glyphshow
7.617188 0.000000 m /e glyphshow
15.000000 0.000000 m /t glyphshow
19.705078 0.000000 m /seven glyphshow
grestore
gsave
c0
332.1 291.6 m
332.1 291.6 l
stroke
grestore
gsave
332.100000 294.100000 translate
0.000000 rotate
0.000000 0.000000 m /zero glyphshow
7.634766 0.000000 m /period glyphshow
11.449219 0.000000 m /two glyphshow
grestore
gsave
c0
406.533 291.6 m
406.488 294.198 l
406.352 296.792 l
405.809 301.959 l
404.907 307.076 l
403.65 312.117 l
402.044 317.058 l
400.098 321.875 l
397.821 326.544 l
395.223 331.044 l
392.318 335.351 l
389.119 339.445 l
385.643 343.306 l
381.905 346.915 l
377.926 350.254 l
373.722 353.308 l
369.317 356.061 l
364.729 358.5 l
359.983 360.613 l
355.101 362.39 l
350.107 363.822 l
345.025 364.902 l
339.88 365.625 l
334.698 365.988 l
329.502 365.988 l
324.32 365.625 l
319.175 364.902 l
314.093 363.822 l
309.099 362.39 l
304.217 360.613 l
299.471 358.5 l
294.883 356.061 l
290.478 353.308 l
286.274 350.254 l
282.295 346.915 l
278.557 343.306 l
275.081 339.445 l
271.882 335.351 l
268.977 331.044 l
266.379 326.544 l
264.102 321.875 l
262.156 317.058 l
260.55 312.117 l
259.293 307.076 l
258.391 301.959 l
257.848 296.792 l
257.667 291.6 l
257.848 286.408 l
258.391 281.241 l
259.293 276.124 l
260.55 271.083 l
262.156 266.142 l
264.102 261.325 l
266.379 256.656 l
268.977 252.156 l
271.882 247.849 l
275.081 243.755 l
278.557 239.894 l
282.295 236.285 l
286.274 232.946 l
290.478 229.892 l
294.883 227.139 l
299.471 224.7 l
304.217 222.587 l
309.099 220.81 l
314.093 219.378 l
319.175 218.298 l
324.32 217.575 l
329.502 217.212 l
334.698 217.212 l
339.88 217.575 l
345.025 218.298 l
350.107 219.378 l
355.101 220.81 l
359.983 222.587 l
364.729 224.7 l
369.317 227.139 l
373.722 229.892 l
377.926 232.946 l
381.905 236.285 l
385.643 239.894 l
389.119 243.755 l
392.318 247.849 l
395.223 252.156 l
397.821 256.656 l
400.098 261.325 l
402.044 266.142 l
403.65 271.083 l
404.907 276.124 l
405.809 281.241 l
406.352 286.408 l
406.533 291.6 l
406.533 291.6 l
stroke
grestore
gsave
400.867200 322.584307 translate
0.000000 rotate
0.000000 0.000000 m /zero glyphshow
7.634766 0.000000 m /period glyphshow
11.449219 0.000000 m /four glyphshow
grestore
gsave
c0
480.966 291.6 m
480.875 296.795 l
480.604 301.984 l
480.151 307.161 l
479.517 312.318 l
478.705 317.45 l
477.713 322.551 l
476.544 327.614 l
475.199 332.633 l
473.68 337.602 l
471.988 342.515 l
470.126 347.366 l
468.096 352.149 l
465.9 356.859 l
463.541 361.488 l
461.022 366.033 l
458.346 370.487 l
455.516 374.845 l
452.535 379.101 l
449.408 383.251 l
446.138 387.289 l
442.729 391.211 l
439.185 395.011 l
435.511 398.685 l
431.711 402.229 l
427.789 405.638 l
423.751 408.908 l
419.601 412.035 l
415.345 415.016 l
410.987 417.846 l
406.533 420.522 l
401.988 423.041 l
397.359 425.4 l
392.649 427.596 l
387.866 429.626 l
383.015 431.488 l
378.102 433.18 l
373.133 434.699 l
368.114 436.044 l
363.051 437.213 l
357.95 438.205 l
352.818 439.017 l
347.661 439.651 l
342.484 440.104 l
337.295 440.375 l
332.1 440.466 l
326.905 440.375 l
321.716 440.104 l
316.539 439.651 l
311.382 439.017 l
306.25 438.205 l
301.149 437.213 l
296.086 436.044 l
291.067 434.699 l
286.098 433.18 l
281.185 431.488 l
276.334 429.626 l
271.551 427.596 l
266.841 425.4 l
262.212 423.041 l
257.667 420.522 l
253.213 417.846 l
248.855 415.016 l
244.599 412.035 l
240.449 408.908 l
236.411 405.638 l
232.489 402.229 l
228.689 398.685 l
225.015 395.011 l
221.471 391.211 l
218.062 387.289 l
214.792 383.251 l
211.665 379.101 l
208.684 374.845 l
205.854 370.487 l
203.178 366.033 l
200.659 361.488 l
198.3 356.859 l
196.104 352.149 l
194.074 347.366 l
192.212 342.515 l
190.52 337.602 l
189.001 332.633 l
187.656 327.614 l
186.487 322.551 l
185.495 317.45 l
184.683 312.318 l
184.049 307.161 l
183.596 301.984 l
183.325 296.795 l
183.234 291.6 l
183.325 286.405 l
183.596 281.216 l
184.049 276.039 l
184.683 270.882 l
185.495 265.75 l
186.487 260.649 l
187.656 255.586 l
189.001 250.567 l
190.52 245.598 l
192.212 240.685 l
194.074 235.834 l
196.104 231.051 l
198.3 226.341 l
200.659 221.712 l
203.178 217.167 l
205.854 212.713 l
208.684 208.355 l
211.665 204.099 l
214.792 199.949 l
218.062 195.911 l
221.471 191.989 l
225.015 188.189 l
228.689 184.515 l
232.489 180.971 l
236.411 177.562 l
240.449 174.292 l
244.599 171.165 l
248.855 168.184 l
253.213 165.354 l
257.667 162.678 l
262.212 160.159 l
266.841 157.8 l
271.551 155.604 l
276.334 153.574 l
281.185 151.712 l
286.098 150.02 l
291.067 148.501 l
296.086 147.156 l
301.149 145.987 l
306.25 144.995 l
311.382 144.183 l
316.539 143.549 l
321.716 143.096 l
326.905 142.825 l
332.1 142.734 l
337.295 142.825 l
342.484 143.096 l
347.661 143.549 l
352.818 144.183 l
357.95 144.995 l
363.051 145.987 l
368.114 147.156 l
373.133 148.501 l
378.102 150.02 l
383.015 151.712 l
387.866 153.574 l
392.649 155.604 l
397.359 157.8 l
401.988 160.159 l
406.533 162.678 l
410.987 165.354 l
415.345 168.184 l
419.601 171.165 l
423.751 174.292 l
427.789 177.562 l
431.711 180.971 l
435.511 184.515 l
439.185 188.189 l
442.729 191.989 l
446.138 195.911 l
449.408 199.949 l
452.535 204.099 l
455.516 208.355 l
458.346 212.713 l
461.022 217.167 l
463.541 221.712 l
465.9 226.341 l
468.096 231.051 l
470.126 235.834 l
471.988 240.685 l
473.68 245.598 l
475.199 250.567 l
476.544 255.586 l
477.713 260.649 l
478.705 265.75 l
479.517 270.882 l
480.151 276.039 l
480.604 281.216 l
480.875 286.405 l
480.966 291.6 l
480.966 291.6 l
stroke
grestore
gsave
469.634401 351.068614 translate
0.000000 rotate
0.000000 0.000000 m /zero glyphshow
7.634766 0.000000 m /period glyphshow
11.449219 0.000000 m /six glyphshow
grestore
gsave
c0
555.399 291.6 m
555.263 299.393 l
554.855 307.177 l
554.176 314.941 l
553.226 322.677 l
552.007 330.376 l
550.52 338.027 l
548.766 345.621 l
546.749 353.15 l
544.47 360.603 l
541.933 367.973 l
539.139 375.249 l
536.094 382.424 l
532.8 389.488 l
529.262 396.433 l
525.483 403.25 l
521.468 409.931 l
517.223 416.467 l
512.753 422.852 l
508.062 429.077 l
503.157 435.134 l
498.044 441.016 l
492.728 446.717 l
487.217 452.228 l
481.516 457.544 l
475.634 462.657 l
469.577 467.562 l
463.352 472.253 l
456.967 476.723 l
450.431 480.968 l
443.75 484.983 l
436.933 488.762 l
429.988 492.3 l
422.924 495.594 l
415.749 498.639 l
408.473 501.433 l
401.103 503.97 l
393.65 506.249 l
386.121 508.266 l
378.527 510.02 l
370.876 511.507 l
363.177 512.726 l
355.441 513.676 l
347.677 514.355 l
339.893 514.763 l
332.1 514.899 l
324.307 514.763 l
316.523 514.355 l
308.759 513.676 l
301.023 512.726 l
293.324 511.507 l
285.673 510.02 l
278.079 508.266 l
270.55 506.249 l
263.097 503.97 l
255.727 501.433 l
248.451 498.639 l
241.276 495.594 l
234.212 492.3 l
227.267 488.762 l
220.45 484.983 l
213.769 480.968 l
207.233 476.723 l
200.848 472.253 l
194.623 467.562 l
188.566 462.657 l
182.684 457.544 l
176.983 452.228 l
171.472 446.717 l
166.156 441.016 l
161.043 435.134 l
156.138 429.077 l
151.447 422.852 l
146.977 416.467 l
142.732 409.931 l
138.717 403.25 l
134.938 396.433 l
131.4 389.488 l
128.106 382.424 l
125.061 375.249 l
122.267 367.973 l
119.73 360.603 l
117.451 353.15 l
115.434 345.621 l
113.68 338.027 l
112.193 330.376 l
110.974 322.677 l
110.024 314.941 l
109.345 307.177 l
108.937 299.393 l
108.801 291.6 l
108.937 283.807 l
109.345 276.023 l
110.024 268.259 l
110.974 260.523 l
112.193 252.824 l
113.68 245.173 l
115.434 237.579 l
117.451 230.05 l
119.73 222.597 l
122.267 215.227 l
125.061 207.951 l
128.106 200.776 l
131.4 193.712 l
134.938 186.767 l
138.717 179.95 l
142.732 173.269 l
146.977 166.733 l
151.447 160.348 l
156.138 154.123 l
161.043 148.066 l
166.156 142.184 l
171.472 136.483 l
176.983 130.972 l
182.684 125.656 l
188.566 120.543 l
194.623 115.638 l
200.848 110.947 l
207.233 106.477 l
213.769 102.232 l
220.45 98.2172 l
227.267 94.4385 l
234.212 90.9 l
241.276 87.606 l
248.451 84.5605 l
255.727 81.7673 l
263.097 79.2298 l
270.55 76.951 l
278.079 74.9337 l
285.673 73.1804 l
293.324 71.6932 l
301.023 70.4739 l
308.759 69.524 l
316.523 68.8447 l
324.307 68.4368 l
332.1 68.3008 l
339.893 68.4368 l
347.677 68.8447 l
355.441 69.524 l
363.177 70.4739 l
370.876 71.6932 l
378.527 73.1804 l
386.121 74.9337 l
393.65 76.951 l
401.103 79.2298 l
408.473 81.7673 l
415.749 84.5605 l
422.924 87.606 l
429.988 90.9 l
436.933 94.4385 l
443.75 98.2172 l
450.431 102.232 l
456.967 106.477 l
463.352 110.947 l
469.577 115.638 l
475.634 120.543 l
481.516 125.656 l
487.217 130.972 l
492.728 136.483 l
498.044 142.184 l
503.157 148.066 l
508.062 154.123 l
512.753 160.348 l
517.223 166.733 l
521.468 173.269 l
525.483 179.95 l
529.262 186.767 l
532.8 193.712 l
536.094 200.776 l
539.139 207.951 l
541.933 215.227 l
544.47 222.597 l
546.749 230.05 l
548.766 237.579 l
550.52 245.173 l
552.007 252.824 l
553.226 260.523 l
554.176 268.259 l
554.855 276.023 l
555.263 283.807 l
555.399 291.6 l
555.399 291.6 l
stroke
grestore
gsave
538.401601 379.552921 translate
0.000000 rotate
0.000000 0.000000 m /zero glyphshow
7.634766 0.000000 m /period glyphshow
11.449219 0.000000 m /eight glyphshow
grestore
1.000 setlinewidth
[] 0 setdash
gsave
332.1 542.7 m
154.545 469.155 l
81 291.6 l
154.545 114.045 l
332.1 40.5 l
509.655 114.045 l
583.2 291.6 l
509.655 469.155 l
332.1 542.7 l
stroke
grestore
gsave
482.76 517.59 m
617.788 517.59 l
617.788 568.464 l
482.76 568.464 l
482.76 517.59 l
cl
gsave
1.000 setgray
fill
grestore
stroke
grestore
2 setlinecap
0.973 0.910 0.816 setrgbcolor
gsave
492.84 557.664 m
513 557.664 l
stroke
grestore
0.000 setgray
/BitstreamVeraSans-Roman findfont
9.996 scalefont
setfont
gsave
528.840000 552.624375 translate
0.000000 rotate
0.000000 0.000000 m /E glyphshow
6.318359 0.000000 m /n glyphshow
12.656250 0.000000 m /s glyphshow
17.866211 0.000000 m /e glyphshow
24.018555 0.000000 m /m glyphshow
33.759766 0.000000 m /b glyphshow
40.107422 0.000000 m /l glyphshow
42.885742 0.000000 m /e glyphshow
grestore
0.957 0.698 0.741 setrgbcolor
gsave
492.84 544.066 m
513 544.066 l
stroke
grestore
0.000 setgray
gsave
528.840000 539.026250 translate
0.000000 rotate
0.000000 0.000000 m /L glyphshow
5.446289 0.000000 m /o glyphshow
11.564453 0.000000 m /g glyphshow
17.912109 0.000000 m /i glyphshow
20.690430 0.000000 m /c glyphshow
26.188477 0.000000 m /space glyphshow
29.367188 0.000000 m /R glyphshow
35.815430 0.000000 m /e glyphshow
41.967773 0.000000 m /g glyphshow
48.315430 0.000000 m /r glyphshow
52.176758 0.000000 m /e glyphshow
58.329102 0.000000 m /s glyphshow
63.539062 0.000000 m /s glyphshow
68.749023 0.000000 m /i glyphshow
71.527344 0.000000 m /o glyphshow
77.645508 0.000000 m /n glyphshow
grestore
0.835 0.349 0.435 setrgbcolor
gsave
492.84 530.468 m
513 530.468 l
stroke
grestore
0.000 setgray
gsave
528.840000 525.428125 translate
0.000000 rotate
0.000000 0.000000 m /B glyphshow
6.860352 0.000000 m /e glyphshow
13.012695 0.000000 m /n glyphshow
19.350586 0.000000 m /c glyphshow
24.848633 0.000000 m /h glyphshow
31.186523 0.000000 m /m glyphshow
40.927734 0.000000 m /a glyphshow
47.055664 0.000000 m /r glyphshow
51.166992 0.000000 m /k glyphshow
grestore
/BitstreamVeraSans-Bold findfont
14.400 scalefont
setfont
gsave
201.203125 625.320000 translate
0.000000 rotate
0.000000 0.000000 m /C glyphshow
10.549622 0.000000 m /l glyphshow
15.476990 0.000000 m /a glyphshow
25.177307 0.000000 m /s glyphshow
33.733521 0.000000 m /s glyphshow
42.289734 0.000000 m /i glyphshow
47.217102 0.000000 m /f glyphshow
53.471069 0.000000 m /i glyphshow
58.398438 0.000000 m /e glyphshow
68.147888 0.000000 m /r glyphshow
75.237122 0.000000 m /space glyphshow
80.241699 0.000000 m /P glyphshow
90.777283 0.000000 m /e glyphshow
100.526733 0.000000 m /r glyphshow
107.615967 0.000000 m /f glyphshow
113.869934 0.000000 m /o glyphshow
123.745728 0.000000 m /r glyphshow
130.834961 0.000000 m /a glyphshow
140.535278 0.000000 m /n glyphshow
150.769043 0.000000 m /c glyphshow
159.290161 0.000000 m /e glyphshow
169.039612 0.000000 m /space glyphshow
174.044189 0.000000 m /C glyphshow
184.593811 0.000000 m /o glyphshow
194.469604 0.000000 m /m glyphshow
209.448242 0.000000 m /p glyphshow
219.738159 0.000000 m /a glyphshow
229.438477 0.000000 m /r glyphshow
236.527710 0.000000 m /e glyphshow
grestore

end
showpage
